Folder,Files,LOC,SLOC-P,SLOC-L,MVG,BLOC,C&SLOC,CLOC,CWORD,HCLOC,HCWORD
Total,56,7140,5274,2670,164,1342,11,524,1950,72,342
C:\Users\Vlad\Documents\Visual Studio 2015\Projects\NutrApplication,56,7140,5274,2670,164,1342,11,524,1950,72,342
C:\Users\Vlad\Documents\Visual Studio 2015\Projects\NutrApplication\NutrApplication,56,7140,5274,2670,164,1342,11,524,1950,72,342
C:\Users\Vlad\Documents\Visual Studio 2015\Projects\NutrApplication\NutrApplication\Models,16,543,375,230,12,74,3,94,506,72,336
C:\Users\Vlad\Documents\Visual Studio 2015\Projects\NutrApplication\NutrApplication\Properties,3,159,78,27,4,24,4,57,355,0,2
C:\Users\Vlad\Documents\Visual Studio 2015\Projects\NutrApplication\NutrApplication\ViewModels,7,1510,1382,807,115,117,0,11,34,0,0
C:\Users\Vlad\Documents\Visual Studio 2015\Projects\NutrApplication\NutrApplication\Views,4,113,93,69,0,8,0,12,36,0,0
C:\Users\Vlad\Documents\Visual Studio 2015\Projects\NutrApplication\NutrApplication\obj,25,4792,3329,1528,33,1116,4,347,1010,0,4
C:\Users\Vlad\Documents\Visual Studio 2015\Projects\NutrApplication\NutrApplication\obj\Debug,13,2434,1689,780,17,564,2,181,526,0,2
C:\Users\Vlad\Documents\Visual Studio 2015\Projects\NutrApplication\NutrApplication\obj\Debug\Views,8,2216,1568,696,16,528,0,120,336,0,0
C:\Users\Vlad\Documents\Visual Studio 2015\Projects\NutrApplication\NutrApplication\obj\Release,12,2358,1640,748,16,552,2,166,484,0,2
C:\Users\Vlad\Documents\Visual Studio 2015\Projects\NutrApplication\NutrApplication\obj\Release\Views,8,2216,1568,696,16,528,0,120,336,0,0
